Species data
…
Here, we will use the rebirdpackage that provides an R
interface to the eBird webservices. Accessing eBird data through the API
server requires an API key, meaning a token to use the API, which is
linked to your personal eBird account. If you don’t have a key, you can
obtain one from https://ebird.org/api/keygen.

library(rebird)

Most functions for data queries use a specific species code. A list
with the entire taxonomy is stored internally:

# Look at eBird taxonomy
rebird:::tax

## # A tibble: 16,753 × 15
##    sciName     comName speciesCode category taxonOrder bandingCodes comNameCodes
##    <chr>       <chr>   <chr>       <chr>         <dbl> <chr>        <chr>       
##  1 Struthio c… Common… ostric2     species           1 <NA>         COOS        
##  2 Struthio m… Somali… ostric3     species           6 <NA>         SOOS        
##  3 Struthio c… Common… y00934      slash             7 <NA>         SOOS,COOS   
##  4 Rhea ameri… Greate… grerhe1     species           8 <NA>         GRRH        
##  5 Rhea penna… Lesser… lesrhe2     species          14 <NA>         LERH        
##  6 Rhea penna… Lesser… lesrhe4     issf             15 <NA>         LERH,LR     
##  7 Rhea penna… Lesser… lesrhe3     issf             18 <NA>         LERH,LR     
##  8 Nothocercu… Tawny-… tabtin1     species          19 <NA>         TBTI        
##  9 Nothocercu… Highla… higtin1     species          20 HITI         <NA>        
## 10 Nothocercu… Highla… higtin2     issf             21 <NA>         HT,HITI     
## # ℹ 16,743 more rows
## # ℹ 8 more variables: sciNameCodes <chr>, order <chr>, familyCode <chr>,
## #   familyComName <chr>, familySciName <chr>, reportAs <chr>, extinct <lgl>,
## #   extinctYear <int>
…
